run/dump.vcd
$date
	Sun May  5 09:07:23 2024
$end
$version
	Icarus Verilog
$end
$timescale
	1us
$end
$scope module fifo_async1 $end
$var wire 8 ! d_in [7:0] $end
$var wire 1 " rd $end
$var wire 1 # rd_clk_in $end
$var wire 1 $ rst $end
$var wire 1 % wr $end
$var wire 1 & wr_clk_in $end
$var wire 9 ' gr_wr_ptr_1 [8:0] $end
$var wire 9 ( gr_rd_ptr_1 [8:0] $end
$var wire 9 ) bn_wr_ptr_s2 [8:0] $end
$var wire 9 * bn_wr_ptr [8:0] $end
$var wire 9 + bn_rd_ptr_s2 [8:0] $end
$var wire 9 , bn_rd_ptr [8:0] $end
$var reg 9 - bn_rd_ptr_1 [8:0] $end
$var reg 9 . bn_wr_ptr_1 [8:0] $end
$var reg 8 / d_out [7:0] $end
$var reg 1 0 empty $end
$var reg 1 1 full $end
$var reg 9 2 gr_rd_ptr [8:0] $end
$var reg 9 3 gr_rd_ptr_s1 [8:0] $end
$var reg 9 4 gr_rd_ptr_s2 [8:0] $end
$var reg 9 5 gr_wr_ptr [8:0] $end
$var reg 9 6 gr_wr_ptr_s1 [8:0] $end
$var reg 9 7 gr_wr_ptr_s2 [8:0] $end
$var reg 1 8 rd_clk $end
$var reg 1 9 wr_clk $end
$scope module f1 $end
$var wire 9 : in [8:0] $end
$var reg 9 ; out [8:0] $end
$var integer 32 < i [31:0] $end
$upscope $end
$scope module f2 $end
$var wire 9 = in [8:0] $end
$var reg 9 > out [8:0] $end
$var integer 32 ? i [31:0] $end
$upscope $end
$scope module f3 $end
$var wire 9 @ in [8:0] $end
$var reg 9 A out [8:0] $end
$var integer 32 B i [31:0] $end
$upscope $end
$scope module f4 $end
$var wire 9 C in [8:0] $end
$var reg 9 D out [8:0] $end
$var integer 32 E i [31:0] $end
$upscope $end
$scope module f5 $end
$var wire 9 F in [8:0] $end
$var reg 9 G out [8:0] $end
$var integer 32 H i [31:0] $end
$upscope $end
$scope module f6 $end
$var wire 9 I in [8:0] $end
$var reg 9 J out [8:0] $end
$var integer 32 K i [31:0] $end
$upscope $end
$upscope $end
$scope module fifo_combo_tb $end
$var wire 8 L lfsr_in [7:0] $end
$var wire 1 M full $end
$var wire 1 N empty $end
$var wire 8 O d_out [7:0] $end
$var reg 8 P d_in [7:0] $end
$var reg 1 Q rd $end
$var reg 1 R rd_clk_in $end
$var reg 1 S rd_st $end
$var reg 1 T rst $end
$var reg 1 U wr $end
$var reg 1 V wr_clk_in $end
$var reg 1 W wr_done $end
$var integer 32 X fd [31:0] $end
$scope module dut $end
$var wire 8 Y d_in [7:0] $end
$var wire 1 Q rd $end
$var wire 1 R rd_clk_in $end
$var wire 1 T rst $end
$var wire 1 U wr $end
$var wire 1 V wr_clk_in $end
$var wire 8 Z gr_wr_ptr_1 [7:0] $end
$var wire 8 [ gr_rd_ptr_1 [7:0] $end
$var wire 8 \ bn_wr_ptr_s2 [7:0] $end
$var wire 8 ] bn_wr_ptr [7:0] $end
$var wire 8 ^ bn_rd_ptr_s2 [7:0] $end
$var wire 8 _ bn_rd_ptr [7:0] $end
$var reg 8 ` bn_rd_ptr_1 [7:0] $end
$var reg 8 a bn_wr_ptr_1 [7:0] $end
$var reg 8 b d_out [7:0] $end
$var reg 1 c dir_rd $end
$var reg 1 d dir_wr $end
$var reg 1 N empty $end
$var reg 1 M full $end
$var reg 8 e gr_rd_ptr [7:0] $end
$var reg 8 f gr_rd_ptr_s1 [7:0] $end
$var reg 8 g gr_rd_ptr_s2 [7:0] $end
$var reg 8 h gr_wr_ptr [7:0] $end
$var reg 8 i gr_wr_ptr_s1 [7:0] $end
$var reg 8 j gr_wr_ptr_s2 [7:0] $end
$var reg 1 k rd_clk $end
$var reg 9 l word_count_rd [8:0] $end
$var reg 9 m word_count_wr [8:0] $end
$var reg 1 n wr_clk $end
$scope module f1 $end
$var wire 8 o in [7:0] $end
$var reg 8 p out [7:0] $end
$var integer 32 q i [31:0] $end
$upscope $end
$scope module f2 $end
$var wire 8 r in [7:0] $end
$var reg 8 s out [7:0] $end
$var integer 32 t i [31:0] $end
$upscope $end
$scope module f3 $end
$var wire 8 u in [7:0] $end
$var reg 8 v out [7:0] $end
$var integer 32 w i [31:0] $end
$upscope $end
$scope module f4 $end
$var wire 8 x in [7:0] $end
$var reg 8 y out [7:0] $end
$var integer 32 z i [31:0] $end
$upscope $end
$scope module f5 $end
$var wire 8 { in [7:0] $end
$var reg 8 | out [7:0] $end
$var integer 32 } i [31:0] $end
$upscope $end
$scope module f6 $end
$var wire 8 ~ in [7:0] $end
$var reg 8 !" out [7:0] $end
$var integer 32 "" i [31:0] $end
$upscope $end
$upscope $end
$scope module rand_gen $end
$var wire 1 M full $end
$var wire 1 T rst $end
$var wire 1 U wr $end
$var reg 8 #" d_out [7:0] $end
$var reg 16 $" lfsr [15:0] $end
$var reg 16 %" lfsr_out [15:0] $end
$var integer 32 &" fd [31:0] $end
$upscope $end
$scope begin read_fifo $end
$var integer 32 '" i [31:0] $end
$upscope $end
$scope begin terminate $end
$var integer 32 (" i [31:0] $end
$upscope $end
$scope begin write_fifo $end
$var integer 32 )" count_1 [31:0] $end
$var integer 32 *" i [31:0] $end
$upscope $end
$upscope $end
$scope module tasks_1 $end
$scope task CALC $end
$var reg 8 +" d_out [7:0] $end
$var reg 16 ," interm [1:16] $end
$var reg 16 -" lfsr [15:0] $end
$var reg 16 ." lfsr_out [15:0] $end
$var integer 32 /" i [31:0] $end
$upscope $end
$scope task SINGLE_READ $end
$upscope $end
$scope task SINGLE_WRITE $end
$upscope $end
$upscope $end
$enddefinitions $end
#0
$dumpvars
bx /"
bx ."
bx -"
bx ,"
bx +"
b0 *"
bx )"
bx ("
b0 '"
b10000000000000000000000000000011 &"
bx %"
b101010100001 $"
bx #"
bx ""
bx !"
bx ~
bx }
bx |
bx {
b11111111111111111111111111111111 z
b1 y
b1 x
b11111111111111111111111111111111 w
b0 v
b0 u
b11111111111111111111111111111111 t
b1 s
b1 r
b11111111111111111111111111111111 q
b0 p
b0 o
0n
b0 m
b0 l
0k
bx j
bx i
b0 h
bx g
bx f
b0 e
0d
0c
bx b
b1 a
b1 `
b0 _
bx ^
b0 ]
bx \
b1 [
b1 Z
bx Y
b10000000000000000000000000000100 X
0W
0V
0U
0T
1S
0R
0Q
bx P
bx O
0N
0M
bx L
bx K
bx J
bx I
bx H
bx G
bx F
bx E
bx D
bx C
bx B
bx A
bx @
bx ?
bx >
bx =
bx <
bx ;
bx :
z9
z8
bx 7
bx 6
bx 5
bx 4
bx 3
bx 2
x1
x0
bx /
bx .
bx -
bx ,
bx +
bx *
bx )
bx (
bx '
z&
z%
z$
z#
z"
bz !
$end
#850000
b0 f
1n
1V
#1700000
0n
0V
#2550000
b11111111111111111111111111111111 }
b0 ^
b0 |
b0 g
b0 {
1n
1V
#3400000
0n
0V
#4250000
1n
1V
#5100000
0n
0V
#5950000
1n
1V
#6800000
0n
0V
#7650000
1n
1V
#8500000
0n
0V
#9350000
1n
1V
#10200000
0n
0V
#11050000
1n
1V
#11900000
0n
0V
#12700000
b0 i
1k
b0 ("
1R
#12750000
1n
1V
#13600000
0n
0V
#14450000
1n
1V
#15300000
0n
0V
#16150000
1n
1T
1V
#16250000
b0 )"
#17000000
0n
0V
#17650000
b10100001 P
b10100001 Y
b1111010100001010 $"
b1111010100001010 %"
b10100001 L
b10100001 #"
b1111010100001010 ."
b10100001 +"
b1000 /"
b1111010100001010 ,"
b101010100001 -"
1U
#17850000
b11 Z
b11 s
b11111111111111111111111111111111 t
b10 a
b10 r
b1 ]
b1 p
b11111111111111111111111111111111 q
b1 h
b1 o
1n
1V
#17950000
bx P
bx Y
b1 )"
b1 *"
0U
#18700000
0n
0V
#19350000
b11000111110101 $"
b11000111110101 %"
b1010 L
b1010 #"
b11000111110101 ."
b11000111110101 ,"
b1010 +"
b1000 /"
b1111010100001010 -"
b1010 P
b1010 Y
1U
#19550000
b10 Z
b10 s
b11111111111111111111111111111111 t
b11 a
b11 r
b10 ]
b10 p
b11111111111111111111111111111111 q
b11 h
b11 o
b10 m
1n
1V
#19650000
bx P
bx Y
b10 )"
b10 *"
0U
#20400000
0n
0V
#21050000
b1001000110001 $"
b1001000110001 %"
b11110101 L
b11110101 #"
b1001000110001 ."
b1001000110001 ,"
b11110101 +"
b1000 /"
b11000111110101 -"
b11110101 P
b11110101 Y
1U
#21250000
b110 Z
b110 s
b11111111111111111111111111111111 t
b100 a
b100 r
b11 ]
b11 p
b11111111111111111111111111111111 q
b11 m
b10 h
b10 o
1n
1V
#21350000
bx P
bx Y
b11 )"
b11 *"
0U
#22100000
0n
0V
#22750000
b1000111000010010 $"
b1000111000010010 %"
b110001 L
b110001 #"
b1000111000010010 ."
b110001 +"
b1000111000010010 ,"
b1000 /"
b1001000110001 -"
b110001 P
b110001 Y
1U
#22950000
b111 Z
b111 s
b11111111111111111111111111111111 t
b101 a
b101 r
b100 ]
b100 p
b11111111111111111111111111111111 q
b110 h
b110 o
b100 m
1n
1V
#23050000
bx P
bx Y
b100 )"
b100 *"
0U
#23800000
0n
0V
#24450000
b1100000110001110 $"
b1100000110001110 %"
b10010 L
b10010 #"
b1100000110001110 ."
b1100000110001110 ,"
b10010 +"
b1000 /"
b1000111000010010 -"
b10010 P
b10010 Y
1U
#24650000
b101 Z
b101 s
b11111111111111111111111111111111 t
b110 a
b110 r
b101 ]
b101 p
b11111111111111111111111111111111 q
b101 m
b111 h
b111 o
1n
1V
#24750000
bx P
bx Y
b101 )"
b101 *"
0U
#25400000
0k
0R
#25500000
0n
0V
#26150000
b11010011000001 $"
b11010011000001 %"
b10001110 L
b10001110 #"
b11010011000001 ."
b10001110 +"
b11010011000001 ,"
b1000 /"
b1100000110001110 -"
b10001110 P
b10001110 Y
1U
#26350000
b100 Z
b100 s
b11111111111111111111111111111111 t
b111 a
b111 r
b110 ]
b110 p
b11111111111111111111111111111111 q
b101 h
b101 o
b110 m
1n
1V
#26450000
bx P
bx Y
b110 )"
b110 *"
0U
#27200000
0n
0V
#27850000
b1001101000110100 $"
b1001101000110100 %"
b11000001 L
b11000001 #"
b1001101000110100 ."
b1001101000110100 ,"
b11000001 +"
b1000 /"
b11010011000001 -"
b11000001 P
b11000001 Y
1U
#28050000
b1100 Z
b1100 s
b11111111111111111111111111111111 t
b1000 a
b1000 r
b111 ]
b111 p
b11111111111111111111111111111111 q
b111 m
b100 h
b100 o
1n
1V
#28150000
bx P
bx Y
b111 )"
b111 *"
0U
#28900000
0n
0V
#29550000
b111000110011010 $"
b111000110011010 %"
b110100 L
b110100 #"
b111000110011010 ."
b111000110011010 ,"
b110100 +"
b1000 /"
b1001101000110100 -"
b110100 P
b110100 Y
1U
#29750000
b1101 Z
b1101 s
b11111111111111111111111111111111 t
b1001 a
b1001 r
b1000 ]
b1000 p
b11111111111111111111111111111111 q
b1100 h
b1100 o
b1000 m
1n
1V
#29850000
bx P
bx Y
b1000 )"
b1000 *"
0U
#30600000
0n
0V
#31250000
b101001101110001 $"
b101001101110001 %"
b10011010 L
b10011010 #"
b101001101110001 ."
b10011010 +"
b101001101110001 ,"
b1000 /"
b111000110011010 -"
b10011010 P
b10011010 Y
1U
#31450000
b1111 Z
b1111 s
b11111111111111111111111111111111 t
b1010 a
b1010 r
b1001 ]
b1001 p
b11111111111111111111111111111111 q
b1001 m
b1101 h
b1101 o
1n
1V
#31550000
bx P
bx Y
b1001 )"
b1001 *"
0U
#32300000
0n
0V
#32950000
b1000001001010011 $"
b1000001001010011 %"
b1110001 L
b1110001 #"
b1000001001010011 ."
b1000001001010011 ,"
b1110001 +"
b1000 /"
b101001101110001 -"
b1110001 P
b1110001 Y
1U
#33150000
b1110 Z
b1110 s
b11111111111111111111111111111111 t
b1011 a
b1011 r
b1010 ]
b1010 p
b11111111111111111111111111111111 q
b1111 h
b1111 o
b1010 m
1n
1V
#33250000
bx P
bx Y
b1010 )"
b1010 *"
0U
#34000000
0n
0V
#34650000
b1011100010000010 $"
b1011100010000010 %"
b1010011 L
b1010011 #"
b1011100010000010 ."
b1010011 +"
b1011100010000010 ,"
b1000 /"
b1000001001010011 -"
b1010011 P
b1010011 Y
1U
#34850000
b1010 Z
b1010 s
b11111111111111111111111111111111 t
b1100 a
b1100 r
b1011 ]
b1011 p
b11111111111111111111111111111111 q
b1011 m
b1110 h
b1110 o
1n
1V
#34950000
bx P
bx Y
b1011 )"
b1011 *"
0U
#35700000
0n
0V
#36350000
b101100010111000 $"
b101100010111000 %"
b10000010 L
b10000010 #"
b101100010111000 ."
b101100010111000 ,"
b10000010 +"
b1000 /"
b1011100010000010 -"
b10000010 P
b10000010 Y
1U
#36550000
b1011 Z
b1011 s
b11111111111111111111111111111111 t
b1101 a
b1101 r
b1100 ]
b1100 p
b11111111111111111111111111111111 q
b1010 h
b1010 o
b1100 m
1n
1V
#36650000
bx P
bx Y
b1100 )"
b1100 *"
0U
#37400000
0n
0V
#37900000
1Q
#38050000
b1001011001011000 $"
b1001011001011000 %"
b10111000 L
b10111000 #"
b1001011001011000 ."
b10111000 +"
b1001011001011000 ,"
b1000 /"
b101100010111000 -"
b10111000 P
b10111000 Y
1U
#38100000
b11 [
b11 y
b11111111111111111111111111111111 z
b10 `
b10 x
b1 _
b1 v
b11111111111111111111111111111111 w
b11111111111111111111111111111111 ""
b0 \
b0 !"
b1 e
b1 u
b0 j
b0 ~
b1010 i
b10100001 O
b10100001 b
1k
1R
#38200000
b1 '"
0Q
#38250000
b1001 Z
b1001 s
b11111111111111111111111111111111 t
b1110 a
b1110 r
b1101 ]
b1101 p
b11111111111111111111111111111111 q
b1101 m
b1011 h
b1011 o
b1 f
1n
1V
#38350000
bx P
bx Y
b1101 )"
b1101 *"
0U
#39100000
0n
0V
#39750000
b1101011010010110 $"
b1101011010010110 %"
b1011000 L
b1011000 #"
b1101011010010110 ."
b1011000 +"
b1101011010010110 ,"
b1000 /"
b1001011001011000 -"
b1011000 P
b1011000 Y
1U
#39950000
b1000 Z
b1000 s
b11111111111111111111111111111111 t
b1111 a
b1111 r
b1110 ]
b1110 p
b11111111111111111111111111111111 q
b1 ^
b1 |
b11111111111111111111111111111111 }
b1001 h
b1001 o
b1110 m
b1 g
b1 {
1n
1V
#40050000
bx P
bx Y
b1110 )"
b1110 *"
0U
#40800000
0n
0V
#41450000
b10001011010110 $"
b10001011010110 %"
b10010110 L
b10010110 #"
b10001011010110 ."
b10010110 +"
b10001011010110 ,"
b1000 /"
b1101011010010110 -"
b10010110 P
b10010110 Y
1U
#41650000
b11000 Z
b11000 s
b11111111111111111111111111111111 t
b10000 a
b10000 r
b1111 ]
b1111 p
b11111111111111111111111111111111 q
b1000 h
b1000 o
1n
1V
#41750000
bx P
bx Y
b1111 )"
b1111 *"
0U
#42500000
0n
0V
#43150000
b1011010100100010 $"
b1011010100100010 %"
b11010110 L
b11010110 #"
b1011010100100010 ."
b11010110 +"
b1011010100100010 ,"
b1000 /"
b10001011010110 -"
b11010110 P
b11010110 Y
1U
#43350000
b11001 Z
b11001 s
b11111111111111111111111111111111 t
b10001 a
b10001 r
b10000 ]
b10000 p
b11111111111111111111111111111111 q
b11000 h
b11000 o
b1111 m
1n
1V
#43450000
bx P
bx Y
b10000 )"
b10000 *"
0U
#44200000
0n
0V
#44850000
b1101110010110101 $"
b1101110010110101 %"
b100010 L
b100010 #"
b1101110010110101 ."
b100010 +"
b1101110010110101 ,"
b1000 /"
b1011010100100010 -"
b100010 P
b100010 Y
1U
#45050000
b11011 Z
b11011 s
b11111111111111111111111111111111 t
b10010 a
b10010 r
b10001 ]
b10001 p
b11111111111111111111111111111111 q
b10000 m
b11001 h
b11001 o
1n
1V
#45150000
bx P
bx Y
b10001 )"
b10001 *"
0U
#45900000
0n
0V
#46550000
b11010011011100 $"
b11010011011100 %"
b10110101 L
b10110101 #"
b11010011011100 ."
b11010011011100 ,"
b10110101 +"
b1000 /"
b1101110010110101 -"
b10110101 P
b10110101 Y
1U
#46750000
b11010 Z
b11010 s
b11111111111111111111111111111111 t
b10011 a
b10011 r
b10010 ]
b10010 p
b11111111111111111111111111111111 q
b11011 h
b11011 o
b10001 m
1n
1V
#46850000
bx P
bx Y
b10010 )"
b10010 *"
0U
#47600000
0n
0V
#48250000
b1000101000110100 $"
b1000101000110100 %"
b11011100 L
b11011100 #"
b1000101000110100 ."
b1000101000110100 ,"
b11011100 +"
b1000 /"
b11010011011100 -"
b11011100 P
b11011100 Y
1U
#48450000
b11110 Z
b11110 s
b11111111111111111111111111111111 t
b10100 a
b10100 r
b10011 ]
b10011 p
b11111111111111111111111111111111 q
b10010 m
b11010 h
b11010 o
1n
1V
#48550000
bx P
bx Y
b10011 )"
b10011 *"
0U
#49300000
0n
0V
#49950000
b110000010001010 $"
b110000010001010 %"
b110100 L
b110100 #"
b110000010001010 ."
b110100 +"
b110000010001010 ,"
b1000 /"
b1000101000110100 -"
b110100 P
b110100 Y
1U
#50150000
b11111 Z
b11111 s
b11111111111111111111111111111111 t
b10101 a
b10101 r
b10100 ]
b10100 p
b11111111111111111111111111111111 q
b11110 h
b11110 o
b10011 m
1n
1V
#50250000
bx P
bx Y
b10100 )"
b10100 *"
0U
#50800000
0k
0R
#51000000
0n
0V
#51650000
b101100001100000 $"
b101100001100000 %"
b10001010 L
b10001010 #"
b101100001100000 ."
b10001010 +"
b101100001100000 ,"
b1000 /"
b110000010001010 -"
b10001010 P
b10001010 Y
1U
#51850000
b11101 Z
b11101 s
b11111111111111111111111111111111 t
b10110 a
b10110 r
b10101 ]
b10101 p
b11111111111111111111111111111111 q
b10100 m
b11111 h
b11111 o
1n
1V
#51950000
bx P
bx Y
b10101 )"
b10101 *"
0U
#52700000
0n
0V
#53350000
b1100100101011000 $"
b1100100101011000 %"
b1100000 L
b1100000 #"
b1100100101011000 ."
b1100000 +"
b1100100101011000 ,"
b1000 /"
b101100001100000 -"
b1100000 P
b1100000 Y
1U
#53550000
b11100 Z
b11100 s
b11111111111111111111111111111111 t
b10111 a
b10111 r
b10110 ]
b10110 p
b11111111111111111111111111111111 q
b11101 h
b11101 o
b10101 m
1n
1V
#53650000
bx P
bx Y
b10110 )"
b10110 *"
0U
#54400000
0n
0V
#55050000
b1110001111001001 $"
b1110001111001001 %"
b1011000 L
b1011000 #"
b1110001111001001 ."
b1011000 +"
b1110001111001001 ,"
b1000 /"
b1100100101011000 -"
b1011000 P
b1011000 Y
1U
#55250000
b10100 Z
b10100 s
b11111111111111111111111111111111 t
b11000 a
b11000 r
b10111 ]
b10111 p
b11111111111111111111111111111111 q
b10110 m
b11100 h
b11100 o
1n
1V
#55350000
bx P
bx Y
b10111 )"
b10111 *"
0U
#56100000
0n
0V
#56750000
b1111101011100011 $"
b1111101011100011 %"
b11001001 L
b11001001 #"
b1111101011100011 ."
b1111101011100011 ,"
b11001001 +"
b1000 /"
b1110001111001001 -"
b11001001 P
b11001001 Y
1U
#56950000
b10101 Z
b10101 s
b11111111111111111111111111111111 t
b11001 a
b11001 r
b11000 ]
b11000 p
b11111111111111111111111111111111 q
b10100 h
b10100 o
b10111 m
1n
1V
#57050000
bx P
bx Y
b11000 )"
b11000 *"
0U
#57800000
0n
0V
#58450000
b1101000111111010 $"
b1101000111111010 %"
b11100011 L
b11100011 #"
b1101000111111010 ."
b11100011 +"
b1101000111111010 ,"
b1000 /"
b1111101011100011 -"
b11100011 P
b11100011 Y
1U
#58650000
b10111 Z
b10111 s
b11111111111111111111111111111111 t
b11010 a
b11010 r
b11001 ]
b11001 p
b11111111111111111111111111111111 q
b11000 m
b10101 h
b10101 o
1n
1V
#58750000
bx P
bx Y
b11001 )"
b11001 *"
0U
#59500000
0n
0V
#60150000
b110010111010001 $"
b110010111010001 %"
b11111010 L
b11111010 #"
b110010111010001 ."
b110010111010001 ,"
b11111010 +"
b1000 /"
b1101000111111010 -"
b11111010 P
b11111010 Y
1U
#60350000
b10110 Z
b10110 s
b11111111111111111111111111111111 t
b11011 a
b11011 r
b11010 ]
b11010 p
b11111111111111111111111111111111 q
b10111 h
b10111 o
b11001 m
1n
1V
#60450000
bx P
bx Y
b11010 )"
b11010 *"
0U
#61200000
0n
0V
#61850000
b1101010101100101 $"
b1101010101100101 %"
b11010001 L
b11010001 #"
b1101010101100101 ."
b1101010101100101 ,"
b11010001 +"
b1000 /"
b110010111010001 -"
b11010001 P
b11010001 Y
1U
#62050000
b10010 Z
b10010 s
b11111111111111111111111111111111 t
b11100 a
b11100 r
b11011 ]
b11011 p
b11111111111111111111111111111111 q
b11010 m
b10110 h
b10110 o
1n
1V
#62150000
bx P
bx Y
b11011 )"
b11011 *"
0U
#62900000
0n
0V
#63300000
1Q
#63500000
b10 [
b10 y
b11111111111111111111111111111111 z
b11 `
b11 x
b10 _
b10 v
b11111111111111111111111111111111 w
b1100 \
b1100 !"
b11111111111111111111111111111111 ""
b100000000 l
b11 e
b11 u
b1010 O
b1010 b
b10110 i
b1010 j
b1010 ~
1k
1R
#63550000
b1011011010101 $"
b1011011010101 %"
b1100101 L
b1100101 #"
b1011011010101 ."
b1100101 +"
b1011011010101 ,"
b1000 /"
b1101010101100101 -"
b1100101 P
b1100101 Y
1U
#63600000
b10 '"
0Q
#63750000
b10011 Z
b10011 s
b11111111111111111111111111111111 t
b11101 a
b11101 r
b11100 ]
b11100 p
b11111111111111111111111111111111 q
b10010 h
b10010 o
b11011 m
b11 f
1n
1V
#63850000
bx P
bx Y
b11100 )"
b11100 *"
0U
#64600000
0n
0V
#65250000
b10010000010110 $"
b10010000010110 %"
b11010101 L
b11010101 #"
b10010000010110 ."
b11010101 +"
b10010000010110 ,"
b1000 /"
b1011011010101 -"
b11010101 P
b11010101 Y
1U
#65450000
b10001 Z
b10001 s
b11111111111111111111111111111111 t
b11110 a
b11110 r
b11101 ]
b11101 p
b11111111111111111111111111111111 q
b10 ^
b10 |
b11111111111111111111111111111111 }
b11100 m
b10011 h
b10011 o
b11 g
b11 {
1n
1V
#65550000
bx P
bx Y
b11101 )"
b11101 *"
0U
#66300000
0n
0V
#66950000
b100110100100100 $"
b100110100100100 %"
b10110 L
b10110 #"
b100110100100100 ."
b100110100100100 ,"
b10110 +"
b1000 /"
b10010000010110 -"
b10110 P
b10110 Y
1U
#67150000
b10000 Z
b10000 s
b11111111111111111111111111111111 t
b11111 a
b11111 r
b11110 ]
b11110 p
b11111111111111111111111111111111 q
b10001 h
b10001 o
1n
1V
#67250000
bx P
bx Y
b11110 )"
b11110 *"
0U
#68000000
0n
0V
#68650000
b111011001001101 $"
b111011001001101 %"
b100100 L
b100100 #"
b111011001001101 ."
b100100 +"
b111011001001101 ,"
b1000 /"
b100110100100100 -"
b100100 P
b100100 Y
1U
#68850000
b110000 Z
b110000 s
b11111111111111111111111111111111 t
b100000 a
b100000 r
b11111 ]
b11111 p
b11111111111111111111111111111111 q
b11101 m
b10000 h
b10000 o
1n
1V
#68950000
bx P
bx Y
b11111 )"
b11111 *"
0U
#69700000
0n
0V
#70350000
b1111010101110110 $"
b1111010101110110 %"
b1001101 L
b1001101 #"
b1111010101110110 ."
b1111010101110110 ,"
b1001101 +"
b1000 /"
b111011001001101 -"
b1001101 P
b1001101 Y
1U
#70550000
b110001 Z
b110001 s
b11111111111111111111111111111111 t
b100001 a
b100001 r
b100000 ]
b100000 p
b11111111111111111111111111111111 q
b110000 h
b110000 o
b11110 m
1n
1V
#70650000
bx P
bx Y
b100000 )"
b100000 *"
0U
#71400000
0n
0V
#72050000
b1010110011110101 $"
b1010110011110101 %"
b1110110 L
b1110110 #"
b1010110011110101 ."
b1010110011110101 ,"
b1110110 +"
b1000 /"
b1111010101110110 -"
b1110110 P
b1110110 Y
1U
#72250000
b110011 Z
b110011 s
b11111111111111111111111111111111 t
b100010 a
b100010 r
b100001 ]
b100001 p
b11111111111111111111111111111111 q
b11111 m
b110001 h
b110001 o
1n
1V
#72350000
bx P
bx Y
b100001 )"
b100001 *"
0U
#73100000
0n
0V
#73750000
b1010101110101100 $"
b1010101110101100 %"
b11110101 L
b11110101 #"
b1010101110101100 ."
b1010101110101100 ,"
b11110101 +"
b1000 /"
b1010110011110101 -"
b11110101 P
b11110101 Y
1U
#73950000
b110010 Z
b110010 s
b11111111111111111111111111111111 t
b100011 a
b100011 r
b100010 ]
b100010 p
b11111111111111111111111111111111 q
b110011 h
b110011 o
b100000 m
1n
1V
#74050000
bx P
bx Y
b100010 )"
b100010 *"
0U
#74800000
0n
0V
#75450000
b101010110101011 $"
b101010110101011 %"
b10101100 L
b10101100 #"
b101010110101011 ."
b101010110101011 ,"
b10101100 +"
b1000 /"
b1010101110101100 -"
b10101100 P
b10101100 Y
1U
#75650000
b110110 Z
b110110 s
b11111111111111111111111111111111 t
b100100 a
b100100 r
b100011 ]
b100011 p
b11111111111111111111111111111111 q
b100001 m
b110010 h
b110010 o
1n
1V
#75750000
bx P
bx Y
b100011 )"
b100011 *"
0U
#76200000
0k
0R
#76500000
0n
0V
#77150000
b10111001010101 $"
b10111001010101 %"
b10101011 L
b10101011 #"
b10111001010101 ."
b10111001010101 ,"
b10101011 +"
b1000 /"
b101010110101011 -"
b10101011 P
b10101011 Y
1U
#77350000
b110111 Z
b110111 s
b11111111111111111111111111111111 t
b100101 a
b100101 r
b100100 ]
b100100 p
b11111111111111111111111111111111 q
b110110 h
b110110 o
b100010 m
1n
1V
#77450000
bx P
bx Y
b100100 )"
b100100 *"
0U
#78200000
0n
0V
#78850000
b1100011100101110 $"
b1100011100101110 %"
b1010101 L
b1010101 #"
b1100011100101110 ."
b1010101 +"
b1100011100101110 ,"
b1000 /"
b10111001010101 -"
b1010101 P
b1010101 Y
1U
#79050000
b110101 Z
b110101 s
b11111111111111111111111111111111 t
b100110 a
b100110 r
b100101 ]
b100101 p
b11111111111111111111111111111111 q
b100011 m
b110111 h
b110111 o
1n
1V
#79150000
bx P
bx Y
b100101 )"
b100101 *"
0U
#79900000
0n
0V
#80550000
b101000011000111 $"
b101000011000111 %"
b101110 L
b101110 #"
b101000011000111 ."
b101000011000111 ,"
b101110 +"
b1000 /"
b1100011100101110 -"
b101110 P
b101110 Y
1U
#80750000
b110100 Z
b110100 s
b11111111111111111111111111111111 t
b100111 a
b100111 r
b100110 ]
b100110 p
b11111111111111111111111111111111 q
b110101 h
b110101 o
b100100 m
1n
1V
#80850000
bx P
bx Y
b100110 )"
b100110 *"
0U
#81600000
0n
0V
#82250000
b10100101010000 $"
b10100101010000 %"
b11000111 L
b11000111 #"
b10100101010000 ."
b10100101010000 ,"
b11000111 +"
b1000 /"
b101000011000111 -"
b11000111 P
b11000111 Y
1U
#82450000
b111100 Z
b111100 s
b11111111111111111111111111111111 t
b101000 a
b101000 r
b100111 ]
b100111 p
b11111111111111111111111111111111 q
b100101 m
b110100 h
b110100 o
1n
1V
#82550000
bx P
bx Y
b100111 )"
b100111 *"
0U
#83300000
0n
0V
#83950000
b1101000000101001 $"
b1101000000101001 %"
b1010000 L
b1010000 #"
b1101000000101001 ."
b1101000000101001 ,"
b1010000 +"
b1000 /"
b10100101010000 -"
b1010000 P
b1010000 Y
1U
#84150000
b111101 Z
b111101 s
b11111111111111111111111111111111 t
b101001 a
b101001 r
b101000 ]
b101000 p
b11111111111111111111111111111111 q
b111100 h
b111100 o
b100110 m
1n
1V
#84250000
bx P
bx Y
b101000 )"
b101000 *"
0U
#85000000
0n
0V
#85650000
b110010111010000 $"
b110010111010000 %"
b101001 L
b101001 #"
b110010111010000 ."
b110010111010000 ,"
b101001 +"
b1000 /"
b1101000000101001 -"
b101001 P
b101001 Y
1U
#85850000
b111111 Z
b111111 s
b11111111111111111111111111111111 t
b101010 a
b101010 r
b101001 ]
b101001 p
b11111111111111111111111111111111 q
b100111 m
b111101 h
b111101 o
1n
1V
#85950000
bx P
bx Y
b101001 )"
b101001 *"
0U
#86700000
0n
0V
#87350000
b1100010001100101 $"
b1100010001100101 %"
b11010000 L
b11010000 #"
b1100010001100101 ."
b1100010001100101 ,"
b11010000 +"
b1000 /"
b110010111010000 -"
b11010000 P
b11010000 Y
1U
#87550000
b111110 Z
b111110 s
b11111111111111111111111111111111 t
b101011 a
b101011 r
b101010 ]
b101010 p
b11111111111111111111111111111111 q
b111111 h
b111111 o
b101000 m
1n
1V
#87650000
bx P
bx Y
b101010 )"
b101010 *"
0U
#88400000
0n
0V
#88700000
1Q
#88900000
b110 [
b110 y
b11111111111111111111111111111111 z
b100 `
b100 x
b11 _
b11 v
b11111111111111111111111111111111 w
b11011 \
b11011 !"
b11111111111111111111111111111111 ""
b10 e
b10 u
b1011 l
1c
b10110 j
b10110 ~
b111111 i
b11110101 O
b11110101 b
1k
1R
#89000000
b11 '"
0Q
#89050000
b1010011111000100 $"
b1010011111000100 %"
b1100101 L
b1100101 #"
b1010011111000100 ."
b1010011111000100 ,"
b1100101 +"
b1000 /"
b1100010001100101 -"
b1100101 P
b1100101 Y
1U
#89250000
b111010 Z
b111010 s
b11111111111111111111111111111111 t
b101100 a
b101100 r
b101011 ]
b101011 p
b11111111111111111111111111111111 q
b101001 m
b111110 h
b111110 o
b10 f
1n
1V
#89350000
bx P
bx Y
b101011 )"
b101011 *"
0U
#90100000
0n
0V
#90750000
b1001010010100111 $"
b1001010010100111 %"
b11000100 L
b11000100 #"
b1001010010100111 ."
b1001010010100111 ,"
b11000100 +"
b1000 /"
b1010011111000100 -"
b11000100 P
b11000100 Y
1U
#90950000
b111011 Z
b111011 s
b11111111111111111111111111111111 t
b101101 a
b101101 r
b101100 ]
b101100 p
b11111111111111111111111111111111 q
b11 ^
b11 |
b11111111111111111111111111111111 }
b111010 h
b111010 o
b101010 m
b10 g
b10 {
1n
1V
